week3/Ripple-Carry-Added/ripple-carry-adder.vcd
$date
	Thu Aug 29 14:09:24 2024
$end
$version
	Icarus Verilog
$end
$timescale
	1s
$end
$scope module ripple_carry_adder_tb $end
$var wire 4 ! out [3:0] $end
$var wire 1 " cout $end
$var reg 4 # in0 [3:0] $end
$var reg 4 $ in1 [3:0] $end
$scope module rca $end
$var wire 4 % in0 [3:0] $end
$var wire 4 & in1 [3:0] $end
$var wire 4 ' out [3:0] $end
$var wire 1 " cout $end
$var wire 1 ( c3 $end
$var wire 1 ) c2 $end
$var wire 1 * c1 $end
$scope module fa0 $end
$var wire 1 + cin $end
$var wire 1 * cout $end
$var wire 1 , in0 $end
$var wire 1 - in1 $end
$var wire 1 . out $end
$upscope $end
$scope module fa1 $end
$var wire 1 * cin $end
$var wire 1 ) cout $end
$var wire 1 / in0 $end
$var wire 1 0 in1 $end
$var wire 1 1 out $end
$upscope $end
$scope module fa2 $end
$var wire 1 ) cin $end
$var wire 1 ( cout $end
$var wire 1 2 in0 $end
$var wire 1 3 in1 $end
$var wire 1 4 out $end
$upscope $end
$scope module fa3 $end
$var wire 1 ( cin $end
$var wire 1 " cout $end
$var wire 1 5 in0 $end
$var wire 1 6 in1 $end
$var wire 1 7 out $end
$upscope $end
$upscope $end
$upscope $end
$enddefinitions $end
$comment Show the parameter values. $end
$dumpall
$end
#0
$dumpvars
07
06
05
04
03
02
01
00
0/
0.
0-
0,
0+
0*
0)
0(
b0 '
b0 &
b0 %
b0 $
b0 #
0"
b0 !
$end
#10
b1 !
b1 '
1.
1-
b1 $
b1 &
#20
0.
b10 !
b10 '
11
0-
10
b10 $
b10 &
#30
b11 !
b11 '
1.
1-
b11 $
b11 &
#40
0.
01
b100 !
b100 '
14
0-
00
13
b100 $
b100 &
#50
b101 !
b101 '
1.
1-
b101 $
b101 &
#60
0.
b110 !
b110 '
11
0-
10
b110 $
b110 &
#70
b111 !
b111 '
1.
1-
b111 $
b111 &
#80
0.
01
04
b1000 !
b1000 '
17
0-
00
03
16
b1000 $
b1000 &
#90
b1001 !
b1001 '
1.
1-
b1001 $
b1001 &
#100
0.
b1010 !
b1010 '
11
0-
10
b1010 $
b1010 &
#110
b1011 !
b1011 '
1.
1-
b1011 $
b1011 &
#120
0.
01
b1100 !
b1100 '
14
0-
00
13
b1100 $
b1100 &
#130
b1101 !
b1101 '
1.
1-
b1101 $
b1101 &
#140
0.
b1110 !
b1110 '
11
0-
10
b1110 $
b1110 &
#150
b1111 !
b1111 '
1.
1-
b1111 $
b1111 &
#160
01
04
b1 !
b1 '
07
0-
00
03
06
1,
b0 $
b0 &
b1 #
b1 %
#170
11
b10 !
b10 '
0.
1*
1-
b1 $
b1 &
#180
04
0)
1.
0*
b11 !
b11 '
11
0-
10
b10 $
b10 &
#190
14
1)
01
b100 !
b100 '
0.
1*
1-
b11 $
b11 &
#200
07
0)
0(
1.
0*
01
b101 !
b101 '
14
0-
00
13
b100 $
b100 &
#210
11
b110 !
b110 '
0.
1*
1-
b101 $
b101 &
#220
07
0(
14
0)
1.
0*
b111 !
b111 '
11
0-
10
b110 $
b110 &
#230
17
1(
04
1)
01
b1000 !
b1000 '
0.
1*
1-
b111 $
b111 &
#240
0)
0(
0"
1.
0*
01
04
b1001 !
b1001 '
17
0-
00
03
16
b1000 $
b1000 &
#250
11
b1010 !
b1010 '
0.
1*
1-
b1001 $
b1001 &
#260
04
0)
1.
0*
b1011 !
b1011 '
11
0-
10
b1010 $
b1010 &
#270
14
1)
01
b1100 !
b1100 '
0.
1*
1-
b1011 $
b1011 &
#280
0"
17
0)
0(
1.
0*
01
b1101 !
b1101 '
14
0-
00
13
b1100 $
b1100 &
#290
11
b1110 !
b1110 '
0.
1*
1-
b1101 $
b1101 &
#300
0"
17
0(
14
0)
1.
0*
b1111 !
b1111 '
11
0-
10
b1110 $
b1110 &
#310
1"
07
1(
04
1)
01
b0 !
b0 '
0.
1*
1-
b1111 $
b1111 &
#320
0)
0(
0"
11
04
b10 !
b10 '
07
0*
0-
00
03
06
0,
1/
b0 $
b0 &
b10 #
b10 %
#330
b11 !
b11 '
1.
1-
b1 $
b1 &
#340
14
0.
b100 !
b100 '
01
1)
0-
10
b10 $
b10 &
#350
b101 !
b101 '
1.
1-
b11 $
b11 &
#360
07
0(
0.
11
0)
b110 !
b110 '
14
0-
00
13
b100 $
b100 &
#370
b111 !
b111 '
1.
1-
b101 $
b101 &
#380
17
1(
04
0.
b1000 !
b1000 '
01
1)
0-
10
b110 $
b110 &
#390
b1001 !
b1001 '
1.
1-
b111 $
b111 &
#400
0(
0"
0.
11
0)
04
b1010 !
b1010 '
17
0-
00
03
16
b1000 $
b1000 &
#410
b1011 !
b1011 '
1.
1-
b1001 $
b1001 &
#420
14
0.
b1100 !
b1100 '
01
1)
0-
10
b1010 $
b1010 &
#430
b1101 !
b1101 '
1.
1-
b1011 $
b1011 &
#440
0"
17
0(
0.
11
0)
b1110 !
b1110 '
14
0-
00
13
b1100 $
b1100 &
#450
b1111 !
b1111 '
1.
1-
b1101 $
b1101 &
#460
1"
07
1(
04
0.
b0 !
b0 '
01
1)
0-
10
b1110 $
b1110 &
#470
b1 !
b1 '
1.
1-
b1111 $
b1111 &
#480
0(
0"
11
0)
04
b11 !
b11 '
07
0-
00
03
06
1,
b0 $
b0 &
b11 #
b11 %
#490
14
1)
01
b100 !
b100 '
0.
1*
1-
b1 $
b1 &
#500
1.
0*
b101 !
b101 '
01
0-
10
b10 $
b10 &
#510
11
b110 !
b110 '
0.
1*
1-
b11 $
b11 &
#520
07
0(
1.
0*
11
0)
b111 !
b111 '
14
0-
00
13
b100 $
b100 &
#530
17
1(
04
1)
01
b1000 !
b1000 '
0.
1*
1-
b101 $
b101 &
#540
1.
0*
b1001 !
b1001 '
01
0-
10
b110 $
b110 &
#550
11
b1010 !
b1010 '
0.
1*
1-
b111 $
b111 &
#560
0(
0"
1.
0*
11
0)
04
b1011 !
b1011 '
17
0-
00
03
16
b1000 $
b1000 &
#570
14
1)
01
b1100 !
b1100 '
0.
1*
1-
b1001 $
b1001 &
#580
1.
0*
b1101 !
b1101 '
01
0-
10
b1010 $
b1010 &
#590
11
b1110 !
b1110 '
0.
1*
1-
b1011 $
b1011 &
#600
0"
17
0(
1.
0*
11
0)
b1111 !
b1111 '
14
0-
00
13
b1100 $
b1100 &
#610
1"
07
1(
04
1)
01
b0 !
b0 '
0.
1*
1-
b1101 $
b1101 &
#620
1.
0*
b1 !
b1 '
01
0-
10
b1110 $
b1110 &
#630
11
b10 !
b10 '
0.
1*
1-
b1111 $
b1111 &
#640
0(
0"
01
14
b100 !
b100 '
07
0*
0)
0-
00
03
06
0,
0/
12
b0 $
b0 &
b100 #
b100 %
#650
b101 !
b101 '
1.
1-
b1 $
b1 &
#660
0.
b110 !
b110 '
11
0-
10
b10 $
b10 &
#670
b111 !
b111 '
1.
1-
b11 $
b11 &
#680
17
0.
01
b1000 !
b1000 '
04
1(
0-
00
13
b100 $
b100 &
#690
b1001 !
b1001 '
1.
1-
b101 $
b101 &
#700
0.
b1010 !
b1010 '
11
0-
10
b110 $
b110 &
#710
b1011 !
b1011 '
1.
1-
b111 $
b111 &
#720
0"
0.
01
14
0(
b1100 !
b1100 '
17
0-
00
03
16
b1000 $
b1000 &
#730
b1101 !
b1101 '
1.
1-
b1001 $
b1001 &
#740
0.
b1110 !
b1110 '
11
0-
10
b1010 $
b1010 &
#750
b1111 !
b1111 '
1.
1-
b1011 $
b1011 &
#760
1"
07
0.
01
b0 !
b0 '
04
1(
0-
00
13
b1100 $
b1100 &
#770
b1 !
b1 '
1.
1-
b1101 $
b1101 &
#780
0.
b10 !
b10 '
11
0-
10
b1110 $
b1110 &
#790
b11 !
b11 '
1.
1-
b1111 $
b1111 &
#800
0"
01
14
0(
b101 !
b101 '
07
0-
00
03
06
1,
b0 $
b0 &
b101 #
b101 %
#810
11
b110 !
b110 '
0.
1*
1-
b1 $
b1 &
#820
07
0(
14
0)
1.
0*
b111 !
b111 '
11
0-
10
b10 $
b10 &
#830
17
1(
04
1)
01
b1000 !
b1000 '
0.
1*
1-
b11 $
b11 &
#840
0)
1.
0*
01
b1001 !
b1001 '
04
0-
00
13
b100 $
b100 &
#850
11
b1010 !
b1010 '
0.
1*
1-
b101 $
b101 &
#860
04
0)
1.
0*
b1011 !
b1011 '
11
0-
10
b110 $
b110 &
#870
14
1)
01
b1100 !
b1100 '
0.
1*
1-
b111 $
b111 &
#880
0)
0"
1.
0*
01
14
0(
b1101 !
b1101 '
17
0-
00
03
16
b1000 $
b1000 &
#890
11
b1110 !
b1110 '
0.
1*
1-
b1001 $
b1001 &
#900
0"
17
0(
14
0)
1.
0*
b1111 !
b1111 '
11
0-
10
b1010 $
b1010 &
#910
1"
07
1(
04
1)
01
b0 !
b0 '
0.
1*
1-
b1011 $
b1011 &
#920
0)
1.
0*
01
b1 !
b1 '
04
0-
00
13
b1100 $
b1100 &
#930
11
b10 !
b10 '
0.
1*
1-
b1101 $
b1101 &
#940
04
0)
1.
0*
b11 !
b11 '
11
0-
10
b1110 $
b1110 &
#950
14
1)
01
b100 !
b100 '
0.
1*
1-
b1111 $
b1111 &
#960
0)
0"
11
14
0(
b110 !
b110 '
07
0*
0-
00
03
06
0,
1/
b0 $
b0 &
b110 #
b110 %
#970
b111 !
b111 '
1.
1-
b1 $
b1 &
#980
17
1(
04
0.
b1000 !
b1000 '
01
1)
0-
10
b10 $
b10 &
#990
b1001 !
b1001 '
1.
1-
b11 $
b11 &
#1000
0.
11
0)
b1010 !
b1010 '
04
0-
00
13
b100 $
b100 &
#1010
b1011 !
b1011 '
1.
1-
b101 $
b101 &
#1020
14
0.
b1100 !
b1100 '
01
1)
0-
10
b110 $
b110 &
#1030
b1101 !
b1101 '
1.
1-
b111 $
b111 &
#1040
0"
0.
11
0)
14
0(
b1110 !
b1110 '
17
0-
00
03
16
b1000 $
b1000 &
#1050
b1111 !
b1111 '
1.
1-
b1001 $
b1001 &
#1060
1"
07
1(
04
0.
b0 !
b0 '
01
1)
0-
10
b1010 $
b1010 &
#1070
b1 !
b1 '
1.
1-
b1011 $
b1011 &
#1080
0.
11
0)
b10 !
b10 '
04
0-
00
13
b1100 $
b1100 &
#1090
b11 !
b11 '
1.
1-
b1101 $
b1101 &
#1100
14
0.
b100 !
b100 '
01
1)
0-
10
b1110 $
b1110 &
#1110
b101 !
b101 '
1.
1-
b1111 $
b1111 &
#1120
0"
11
0)
14
0(
b111 !
b111 '
07
0-
00
03
06
1,
b0 $
b0 &
b111 #
b111 %
#1130
17
1(
04
1)
01
b1000 !
b1000 '
0.
1*
1-
b1 $
b1 &
#1140
1.
0*
b1001 !
b1001 '
01
0-
10
b10 $
b10 &
#1150
11
b1010 !
b1010 '
0.
1*
1-
b11 $
b11 &
#1160
1.
0*
11
0)
b1011 !
b1011 '
04
0-
00
13
b100 $
b100 &
#1170
14
1)
01
b1100 !
b1100 '
0.
1*
1-
b101 $
b101 &
#1180
1.
0*
b1101 !
b1101 '
01
0-
10
b110 $
b110 &
#1190
11
b1110 !
b1110 '
0.
1*
1-
b111 $
b111 &
#1200
0"
1.
0*
11
0)
14
0(
b1111 !
b1111 '
17
0-
00
03
16
b1000 $
b1000 &
#1210
1"
07
1(
04
1)
01
b0 !
b0 '
0.
1*
1-
b1001 $
b1001 &
#1220
1.
0*
b1 !
b1 '
01
0-
10
b1010 $
b1010 &
#1230
11
b10 !
b10 '
0.
1*
1-
b1011 $
b1011 &
#1240
1.
0*
11
0)
b11 !
b11 '
04
0-
00
13
b1100 $
b1100 &
#1250
14
1)
01
b100 !
b100 '
0.
1*
1-
b1101 $
b1101 &
#1260
1.
0*
b101 !
b101 '
01
0-
10
b1110 $
b1110 &
#1270
11
b110 !
b110 '
0.
1*
1-
b1111 $
b1111 &
#1280
0"
01
04
b1000 !
b1000 '
17
0*
0)
0(
0-
00
03
06
0,
0/
02
15
b0 $
b0 &
b1000 #
b1000 %
#1290
b1001 !
b1001 '
1.
1-
b1 $
b1 &
#1300
0.
b1010 !
b1010 '
11
0-
10
b10 $
b10 &
#1310
b1011 !
b1011 '
1.
1-
b11 $
b11 &
#1320
0.
01
b1100 !
b1100 '
14
0-
00
13
b100 $
b100 &
#1330
b1101 !
b1101 '
1.
1-
b101 $
b101 &
#1340
0.
b1110 !
b1110 '
11
0-
10
b110 $
b110 &
#1350
b1111 !
b1111 '
1.
1-
b111 $
b111 &
#1360
0.
01
04
b0 !
b0 '
07
1"
0-
00
03
16
b1000 $
b1000 &
#1370
b1 !
b1 '
1.
1-
b1001 $
b1001 &
#1380
0.
b10 !
b10 '
11
0-
10
b1010 $
b1010 &
#1390
b11 !
b11 '
1.
1-
b1011 $
b1011 &
#1400
0.
01
b100 !
b100 '
14
0-
00
13
b1100 $
b1100 &
#1410
b101 !
b101 '
1.
1-
b1101 $
b1101 &
#1420
0.
b110 !
b110 '
11
0-
10
b1110 $
b1110 &
#1430
b111 !
b111 '
1.
1-
b1111 $
b1111 &
#1440
01
04
b1001 !
b1001 '
17
0"
0-
00
03
06
1,
b0 $
b0 &
b1001 #
b1001 %
#1450
11
b1010 !
b1010 '
0.
1*
1-
b1 $
b1 &
#1460
04
0)
1.
0*
b1011 !
b1011 '
11
0-
10
b10 $
b10 &
#1470
14
1)
01
b1100 !
b1100 '
0.
1*
1-
b11 $
b11 &
#1480
0"
17
0)
0(
1.
0*
01
b1101 !
b1101 '
14
0-
00
13
b100 $
b100 &
#1490
11
b1110 !
b1110 '
0.
1*
1-
b101 $
b101 &
#1500
0"
17
0(
14
0)
1.
0*
b1111 !
b1111 '
11
0-
10
b110 $
b110 &
#1510
1"
07
1(
04
1)
01
b0 !
b0 '
0.
1*
1-
b111 $
b111 &
#1520
0)
0(
1.
0*
01
04
b1 !
b1 '
07
0-
00
03
16
b1000 $
b1000 &
#1530
11
b10 !
b10 '
0.
1*
1-
b1001 $
b1001 &
#1540
04
0)
1.
0*
b11 !
b11 '
11
0-
10
b1010 $
b1010 &
#1550
14
1)
01
b100 !
b100 '
0.
1*
1-
b1011 $
b1011 &
#1560
07
0)
0(
1.
0*
01
b101 !
b101 '
14
0-
00
13
b1100 $
b1100 &
#1570
11
b110 !
b110 '
0.
1*
1-
b1101 $
b1101 &
#1580
07
0(
14
0)
1.
0*
b111 !
b111 '
11
0-
10
b1110 $
b1110 &
#1590
17
1(
04
1)
01
b1000 !
b1000 '
0.
1*
1-
b1111 $
b1111 &
#1600
0)
0(
11
04
b1010 !
b1010 '
17
0"
0*
0-
00
03
06
0,
1/
b0 $
b0 &
b1010 #
b1010 %
#1610
b1011 !
b1011 '
1.
1-
b1 $
b1 &
#1620
14
0.
b1100 !
b1100 '
01
1)
0-
10
b10 $
b10 &
#1630
b1101 !
b1101 '
1.
1-
b11 $
b11 &
#1640
0"
17
0(
0.
11
0)
b1110 !
b1110 '
14
0-
00
13
b100 $
b100 &
#1650
b1111 !
b1111 '
1.
1-
b101 $
b101 &
#1660
1"
07
1(
04
0.
b0 !
b0 '
01
1)
0-
10
b110 $
b110 &
#1670
b1 !
b1 '
1.
1-
b111 $
b111 &
#1680
0(
0.
11
0)
04
b10 !
b10 '
07
0-
00
03
16
b1000 $
b1000 &
#1690
b11 !
b11 '
1.
1-
b1001 $
b1001 &
#1700
14
0.
b100 !
b100 '
01
1)
0-
10
b1010 $
b1010 &
#1710
b101 !
b101 '
1.
1-
b1011 $
b1011 &
#1720
07
0(
0.
11
0)
b110 !
b110 '
14
0-
00
13
b1100 $
b1100 &
#1730
b111 !
b111 '
1.
1-
b1101 $
b1101 &
#1740
17
1(
04
0.
b1000 !
b1000 '
01
1)
0-
10
b1110 $
b1110 &
#1750
b1001 !
b1001 '
1.
1-
b1111 $
b1111 &
#1760
0(
11
0)
04
b1011 !
b1011 '
17
0"
0-
00
03
06
1,
b0 $
b0 &
b1011 #
b1011 %
#1770
14
1)
01
b1100 !
b1100 '
0.
1*
1-
b1 $
b1 &
#1780
1.
0*
b1101 !
b1101 '
01
0-
10
b10 $
b10 &
#1790
11
b1110 !
b1110 '
0.
1*
1-
b11 $
b11 &
#1800
0"
17
0(
1.
0*
11
0)
b1111 !
b1111 '
14
0-
00
13
b100 $
b100 &
#1810
1"
07
1(
04
1)
01
b0 !
b0 '
0.
1*
1-
b101 $
b101 &
#1820
1.
0*
b1 !
b1 '
01
0-
10
b110 $
b110 &
#1830
11
b10 !
b10 '
0.
1*
1-
b111 $
b111 &
#1840
0(
1.
0*
11
0)
04
b11 !
b11 '
07
0-
00
03
16
b1000 $
b1000 &
#1850
14
1)
01
b100 !
b100 '
0.
1*
1-
b1001 $
b1001 &
#1860
1.
0*
b101 !
b101 '
01
0-
10
b1010 $
b1010 &
#1870
11
b110 !
b110 '
0.
1*
1-
b1011 $
b1011 &
#1880
07
0(
1.
0*
11
0)
b111 !
b111 '
14
0-
00
13
b1100 $
b1100 &
#1890
17
1(
04
1)
01
b1000 !
b1000 '
0.
1*
1-
b1101 $
b1101 &
#1900
1.
0*
b1001 !
b1001 '
01
0-
10
b1110 $
b1110 &
#1910
11
b1010 !
b1010 '
0.
1*
1-
b1111 $
b1111 &
#1920
0(
01
14
b1100 !
b1100 '
17
0"
0*
0)
0-
00
03
06
0,
0/
12
b0 $
b0 &
b1100 #
b1100 %
#1930
b1101 !
b1101 '
1.
1-
b1 $
b1 &
#1940
0.
b1110 !
b1110 '
11
0-
10
b10 $
b10 &
#1950
b1111 !
b1111 '
1.
1-
b11 $
b11 &
#1960
1"
07
0.
01
b0 !
b0 '
04
1(
0-
00
13
b100 $
b100 &
#1970
b1 !
b1 '
1.
1-
b101 $
b101 &
#1980
0.
b10 !
b10 '
11
0-
10
b110 $
b110 &
#1990
b11 !
b11 '
1.
1-
b111 $
b111 &
#2000
0.
01
14
0(
b100 !
b100 '
07
0-
00
03
16
b1000 $
b1000 &
#2010
b101 !
b101 '
1.
1-
b1001 $
b1001 &
#2020
0.
b110 !
b110 '
11
0-
10
b1010 $
b1010 &
#2030
b111 !
b111 '
1.
1-
b1011 $
b1011 &
#2040
17
0.
01
b1000 !
b1000 '
04
1(
0-
00
13
b1100 $
b1100 &
#2050
b1001 !
b1001 '
1.
1-
b1101 $
b1101 &
#2060
0.
b1010 !
b1010 '
11
0-
10
b1110 $
b1110 &
#2070
b1011 !
b1011 '
1.
1-
b1111 $
b1111 &
#2080
01
14
0(
b1101 !
b1101 '
17
0"
0-
00
03
06
1,
b0 $
b0 &
b1101 #
b1101 %
#2090
11
b1110 !
b1110 '
0.
1*
1-
b1 $
b1 &
#2100
0"
17
0(
14
0)
1.
0*
b1111 !
b1111 '
11
0-
10
b10 $
b10 &
#2110
1"
07
1(
04
1)
01
b0 !
b0 '
0.
1*
1-
b11 $
b11 &
#2120
0)
1.
0*
01
b1 !
b1 '
04
0-
00
13
b100 $
b100 &
#2130
11
b10 !
b10 '
0.
1*
1-
b101 $
b101 &
#2140
04
0)
1.
0*
b11 !
b11 '
11
0-
10
b110 $
b110 &
#2150
14
1)
01
b100 !
b100 '
0.
1*
1-
b111 $
b111 &
#2160
0)
1.
0*
01
14
0(
b101 !
b101 '
07
0-
00
03
16
b1000 $
b1000 &
#2170
11
b110 !
b110 '
0.
1*
1-
b1001 $
b1001 &
#2180
07
0(
14
0)
1.
0*
b111 !
b111 '
11
0-
10
b1010 $
b1010 &
#2190
17
1(
04
1)
01
b1000 !
b1000 '
0.
1*
1-
b1011 $
b1011 &
#2200
0)
1.
0*
01
b1001 !
b1001 '
04
0-
00
13
b1100 $
b1100 &
#2210
11
b1010 !
b1010 '
0.
1*
1-
b1101 $
b1101 &
#2220
04
0)
1.
0*
b1011 !
b1011 '
11
0-
10
b1110 $
b1110 &
#2230
14
1)
01
b1100 !
b1100 '
0.
1*
1-
b1111 $
b1111 &
#2240
0)
11
14
0(
b1110 !
b1110 '
17
0"
0*
0-
00
03
06
0,
1/
b0 $
b0 &
b1110 #
b1110 %
#2250
b1111 !
b1111 '
1.
1-
b1 $
b1 &
#2260
1"
07
1(
04
0.
b0 !
b0 '
01
1)
0-
10
b10 $
b10 &
#2270
b1 !
b1 '
1.
1-
b11 $
b11 &
#2280
0.
11
0)
b10 !
b10 '
04
0-
00
13
b100 $
b100 &
#2290
b11 !
b11 '
1.
1-
b101 $
b101 &
#2300
14
0.
b100 !
b100 '
01
1)
0-
10
b110 $
b110 &
#2310
b101 !
b101 '
1.
1-
b111 $
b111 &
#2320
0.
11
0)
14
0(
b110 !
b110 '
07
0-
00
03
16
b1000 $
b1000 &
#2330
b111 !
b111 '
1.
1-
b1001 $
b1001 &
#2340
17
1(
04
0.
b1000 !
b1000 '
01
1)
0-
10
b1010 $
b1010 &
#2350
b1001 !
b1001 '
1.
1-
b1011 $
b1011 &
#2360
0.
11
0)
b1010 !
b1010 '
04
0-
00
13
b1100 $
b1100 &
#2370
b1011 !
b1011 '
1.
1-
b1101 $
b1101 &
#2380
14
0.
b1100 !
b1100 '
01
1)
0-
10
b1110 $
b1110 &
#2390
b1101 !
b1101 '
1.
1-
b1111 $
b1111 &
#2400
11
0)
14
0(
b1111 !
b1111 '
17
0"
0-
00
03
06
1,
b0 $
b0 &
b1111 #
b1111 %
#2410
1"
07
1(
04
1)
01
b0 !
b0 '
0.
1*
1-
b1 $
b1 &
#2420
1.
0*
b1 !
b1 '
01
0-
10
b10 $
b10 &
#2430
11
b10 !
b10 '
0.
1*
1-
b11 $
b11 &
#2440
1.
0*
11
0)
b11 !
b11 '
04
0-
00
13
b100 $
b100 &
#2450
14
1)
01
b100 !
b100 '
0.
1*
1-
b101 $
b101 &
#2460
1.
0*
b101 !
b101 '
01
0-
10
b110 $
b110 &
#2470
11
b110 !
b110 '
0.
1*
1-
b111 $
b111 &
#2480
1.
0*
11
0)
14
0(
b111 !
b111 '
07
0-
00
03
16
b1000 $
b1000 &
#2490
17
1(
04
1)
01
b1000 !
b1000 '
0.
1*
1-
b1001 $
b1001 &
#2500
1.
0*
b1001 !
b1001 '
01
0-
10
b1010 $
b1010 &
#2510
11
b1010 !
b1010 '
0.
1*
1-
b1011 $
b1011 &
#2520
1.
0*
11
0)
b1011 !
b1011 '
04
0-
00
13
b1100 $
b1100 &
#2530
14
1)
01
b1100 !
b1100 '
0.
1*
1-
b1101 $
b1101 &
#2540
1.
0*
b1101 !
b1101 '
01
0-
10
b1110 $
b1110 &
#2550
11
b1110 !
b1110 '
0.
1*
1-
b1111 $
b1111 &
